Would you like all your posteriors in one plot? | A. Solomon Kurz
…
head(posts)

## # A tibble: 3 x 4
##   name  prior          fit       post                
##   <chr> <chr>          <list>    <list>              
## 1 fit1  normal(0, 10)  <brmsfit> <df[,3] [4,000 × 3]>
## 2 fit2  normal(0, 1)   <brmsfit> <df[,3] [4,000 × 3]>
## 3 fit3  normal(0, 0.1) <brmsfit> <df[,3] [4,000 × 3]>

We have a 3-row nested tibble. The first column, name is just a character vector with the names of the fits. The next column isn’t necessary, but it nicely explicates the main difference in the models: the prior we used on the intercept. It’s in the map() functions within the two mutate()lines where all the magic happens. With the first, we used the get() function to snatch up the brms fit objects matching the names in the name column. In the second, we used the posterior_samples() function to extract the posterior draws from each of the fits saved in fit. Do you see how each for in the post column contains an entire \(4,000 \times 3\) data frame? That’s why we refer to this as a nested tibble. We have data frames compressed within data frames. If you’d like to access the data within the post column, just unnest().

posts %>% 
  unnest(post)

## # A tibble: 12,000 x 6
##    name  prior         fit       b_Intercept sigma  lp__
##    <chr> <chr>         <list>          <dbl> <dbl> <dbl>
##  1 fit1  normal(0, 10) <brmsfit>    -0.0522  0.857 -204.
##  2 fit1  normal(0, 10) <brmsfit>     0.125   0.898 -204.
##  3 fit1  normal(0, 10) <brmsfit>    -0.00629 0.948 -204.
##  4 fit1  normal(0, 10) <brmsfit>     0.0609  0.941 -204.
##  5 fit1  normal(0, 10) <brmsfit>     0.178   0.946 -205.
##  6 fit1  normal(0, 10) <brmsfit>     0.135   0.927 -204.
##  7 fit1  normal(0, 10) <brmsfit>    -0.0777  0.874 -204.
##  8 fit1  normal(0, 10) <brmsfit>     0.116   0.973 -205.
##  9 fit1  normal(0, 10) <brmsfit>     0.134   0.852 -205.
## 10 fit1  normal(0, 10) <brmsfit>     0.0197  0.929 -203.
## # … with 11,990 more rows
…
