…
For a detailed explanation of all those elements, see the reference manual. For our purposes, we’ll focus on the pareto_k. Here’s a glimpse of what it contains for the b1 model.

loo_b1$diagnostics$pareto_k %>% as_tibble()

## Warning: Calling `as_tibble()` on a vector is discouraged, because the behavior is likely to change in the future. Use `enframe(name = NULL)` instead.
## This warning is displayed once per session.

## # A tibble: 100 x 1
##      value
##      <dbl>
##  1  0.829 
##  2  0.590 
##  3 -0.0669
##  4 -0.104 
##  5 -0.101 
##  6 -0.0321
##  7  0.0498
##  8 -0.114 
##  9  0.179 
## 10 -0.0736
## # … with 90 more rows
…
